# x | data | err
-2.000000e+00 1.073237e+00 1.115168e+00
-1.846154e+00 -1.348384e-01 1.109208e+00
-1.692308e+00 8.782265e-01 1.101153e+00
-1.538462e+00 -9.452189e-01 1.090288e+00
-1.384615e+00 2.020157e+00 1.075682e+00
-1.230769e+00 1.844482e+00 1.056125e+00
-1.076923e+00 9.305466e-01 1.030090e+00
-9.230769e-01 1.115732e+00 9.956966e-01
-7.692308e-01 2.272439e+00 9.507351e-01
-6.153846e-01 2.475313e+00 8.927855e-01
-4.615385e-01 8.704831e-01 8.195153e-01
-3.076923e-01 1.220419e+00 7.292449e-01
-1.538462e-01 7.422725e-01 6.218554e-01
0.000000e+00 6.034760e-01 5.000000e-01
1.538462e-01 1.670669e-01 6.218554e-01
3.076923e-01 -3.607460e-01 7.292449e-01
4.615385e-01 8.249470e-01 8.195153e-01
6.153846e-01 1.232307e+00 8.927855e-01
7.692308e-01 -3.447906e-01 9.507351e-01
9.230769e-01 6.546927e-01 9.956966e-01
1.076923e+00 1.108906e+00 1.030090e+00
1.230769e+00 1.685959e-01 1.056125e+00
1.384615e+00 1.593494e+00 1.075682e+00
1.538462e+00 1.349306e+00 1.090288e+00
1.692308e+00 -6.159403e-01 1.101153e+00
1.846154e+00 2.186262e+00 1.109208e+00
2.000000e+00 3.806419e-01 1.115168e+00
2.153846e+00 2.587949e+00 1.119569e+00
2.307692e+00 1.005669e-01 1.122816e+00
2.461538e+00 1.170663e+00 1.125209e+00
2.615385e+00 3.285942e+00 1.126971e+00
2.769231e+00 1.630814e+00 1.128268e+00
2.923077e+00 2.303562e+00 1.129223e+00
3.076923e+00 7.748807e-01 1.129925e+00
3.230769e+00 -2.281936e-01 1.130442e+00
3.384615e+00 -5.724692e-01 1.130822e+00
3.538462e+00 1.673947e+00 1.131101e+00
3.692308e+00 1.486832e-01 1.131307e+00
3.846154e+00 -1.303230e+00 1.131458e+00
4.000000e+00 1.396750e+00 1.131569e+00
